%YAML 1.1
%TAG !u! tag:unity3d.com,2011:
--- !u!1045 &1
EditorBuildSettings:
  m_ObjectHideFlags: 0
  serializedVersion: 2
  m_Scenes:
  - enabled: 1
    path: Assets/Scenes/City.unity
    guid: 9fc0d4010bbf28b4594072e72b8655ab
  - enabled: 1
    path: Assets/Scenes/WaterBalls.unity
    guid: 730b3e7dedd636d428fd8a26153ae3c2
  - enabled: 1
    path: Assets/Scenes/Test.unity
    guid: 7d2dd6ea2decd3741aabfd4b6c863b90
  m_configObjects: {}
